a b 5 5 0 0 6 30 08 78 88 78
b b 6 5 0 0 6 80 80 80 F0 88 F0
c b 3 5 0 0 6 78 80 78
d b 6 5 0 0 6 08 08 08 78 88 78
e b 5 5 0 -1 6 70 88 F0 80 70
f b 6 3 0 0 4 60 80 80 C0 80 80
g b 5 5 0 -1 6 78 88 78 08 70
h b 7 5 0 0 6 80 80 80 80 F0 88 88
i b 5 2 0 0 3 40 00 C0 40 40
j b 6 4 0 -1 5 10 00 30 10 10 E0
k b 7 5 0 0 6 80 80 80 98 E0 90 88
l b 7 2 0 0 3 C0 40 40 40 40 40 40
m b 3 7 0 0 8 EC 92 92
n b 3 5 0 0 6 F0 88 88
o b 3 5 0 0 6 70 88 70
p b 5 5 0 -1 6 F0 88 F0 80 80
q b 5 5 0 -1 6 78 88 78 08 08
r b 3 5 0 0 6 B8 C0 80
s b 5 5 0 -1 6 70 80 70 08 70
t b 4 5 0 0 6 80 F0 80 78
u b 3 5 0 0 6 88 88 78
v b 3 5 0 0 6 88 50 20
w b 3 7 0 0 8 82 92 6C
x b 3 5 0 0 6 D8 20 D8
y b 5 5 0 -1 6 88 88 78 08 70
z b 5 5 0 -1 6 F8 10 20 40 F8
