{
  "spawn": {
    "1": "3 8 3 9 3 10 3 11 3 12 3 13 4 8 4 9 4 10 4 11 4 12 4 13",
    "2": "13 5 13 6 13 7 13 8 13 9 13 10 13 11 13 12 13 13 14 5 14 6 14 7 14 8 14 9 14 10 14 11 14 12 14 13",
    "3": "6 16 8 16 10 16"
  },
  "sx": 20,
  "sy": 20,
  "tileSet": "tile1",
  "tiles": [
    ". . . . . . . . . . . . . . . . . . . .",
    ". . . . . . . . . . . . . . . . . . . .",
    ". . . . . . . . . . . . . . . . . . . .",
    ". . . . 8401 . 8401 . 8401 . 8401 . 8401 . . . . . . .",
    ". . . . 7401 . . . . . . . 7401 . . . . . . .",
    ". . . . 6401 . . . . . . . 6401 . . . . . . .",
    ". . . 5401 5401 . . . . . . . 5401 5401 5401 . . . . .",
    ". . . 5401 5401 e514 . . . . . . 5401 5401 5401 . . . . .",
    ". . . 5401 5401 5401 5401 6403 7401 7401 7401 7401 6405 5401 5401 . . . . .",
    ". . . 5401 5401 5401 5401 6403 7401 7401 7401 7401 6405 5401 5401 . . . . .",
    ". . . 4402 4402 e512 . . . . . . . 4402 4402 . . . . .",
    ". . . 2402 2402 . . . e514 . . . . 3401 3401 . . . . .",
    ". . . 321 321 321 321 321 321 321 321 . . 3401 3401 . . . . .",
    ". . . 321 321 321 321 321 321 321 321 1401 2403 3401 3401 . . . . .",
    ". . . 321 321 321 321 e513 321 e515 321 1401 2403 3401 3401 . . . . .",
    ". . . 321 321 321 321 321 321 321 321 . . . . . . . . .",
    ". . . 321 321 321 321 321 321 321 321 . . . . . . . . .",
    ". . . . . . . . e512 . . . . . . . . . . .",
    ". . . . . . . . . . . . . . . . . . . .",
    ". . . . . . . . . . . . . . . . . . . ."
  ]
}
